 [
  {
  "no": "#001",
  "cn_name": "妙蛙种子",
  "jp_name": "フシギダネ",
  "en_name": "Bulbasaur"
  },
  {
  "no": "#002",
  "cn_name": "妙蛙草",
  "jp_name": "フシギソウ",
  "en_name": "Ivysaur"
  },
  {
  "no": "#003",
  "cn_name": "妙蛙花",
  "jp_name": "フシギバナ",
  "en_name": "Venusaur"
  },
  {
  "no": "#004",
  "cn_name": "小火龙",
  "jp_name": "ヒトカゲ",
  "en_name": "Charmander"
  },
  {
  "no": "#005",
  "cn_name": "火恐龙",
  "jp_name": "リザード",
  "en_name": "Charmeleon"
  },
  {
  "no": "#006",
  "cn_name": "喷火龙",
  "jp_name": "リザードン",
  "en_name": "Charizard"
  },
  {
  "no": "#007",
  "cn_name": "杰尼龟",
  "jp_name": "ゼニガメ",
  "en_name": "Squirtle"
  },
  {
  "no": "#008",
  "cn_name": "卡咪龟",
  "jp_name": "カメー儿",
  "en_name": "Wartortle"
  },
  {
  "no": "#009",
  "cn_name": "水箭龟",
  "jp_name": "カメックス",
  "en_name": "Blastoise"
  },
  {
  "no": "#010",
  "cn_name": "绿毛虫",
  "jp_name": "キャタピー",
  "en_name": "Caterpie"
  },
  {
  "no": "#011",
  "cn_name": "铁甲蛹",
  "jp_name": "トランセ儿",
  "en_name": "Metapod"
  },
  {
  "no": "#012",
  "cn_name": "巴大蝶",
  "jp_name": "バタフリー",
  "en_name": "Butterfree"
  },
  {
  "no": "#013",
  "cn_name": "独角虫",
  "jp_name": "ビード儿",
  "en_name": "Weedle"
  },
  {
  "no": "#014",
  "cn_name": "铁壳蛹",
  "jp_name": "コクーン",
  "en_name": "Kakuna"
  },
  {
  "no": "#015",
  "cn_name": "大针蜂",
  "jp_name": "スピアー",
  "en_name": "Beedrill"
  },
  {
  "no": "#016",
  "cn_name": "波波",
  "jp_name": "ポッポ",
  "en_name": "Pidgey"
  },
  {
  "no": "#017",
  "cn_name": "比比鸟",
  "jp_name": "ピジョン",
  "en_name": "Pidgeotto"
  },
  {
  "no": "#018",
  "cn_name": "大比鸟",
  "jp_name": "ピジョット",
  "en_name": "Pidgeot"
  },
  {
  "no": "#019",
  "cn_name": "小拉达",
  "jp_name": "コラッタ",
  "en_name": "Rattata"
  },
  {
  "no": "#020",
  "cn_name": "拉达",
  "jp_name": "ラッタ",
  "en_name": "Raticate"
  },
  {
  "no": "#021",
  "cn_name": "烈雀",
  "jp_name": "オニスズメ",
  "en_name": "Spearow"
  },
  {
  "no": "#022",
  "cn_name": "大嘴雀",
  "jp_name": "オニドリ儿",
  "en_name": "Fearow"
  },
  {
  "no": "#023",
  "cn_name": "阿柏蛇",
  "jp_name": "アーボ",
  "en_name": "Ekans"
  },
  {
  "no": "#024",
  "cn_name": "阿柏怪",
  "jp_name": "アーボック",
  "en_name": "Arbok"
  },
  {
  "no": "#025",
  "cn_name": "皮卡丘",
  "jp_name": "ピカチュウ",
  "en_name": "Pikachu"
  },
  {
  "no": "#026",
  "cn_name": "雷丘",
  "jp_name": "ライチュウ",
  "en_name": "Raichu"
  },
  {
  "no": "#027",
  "cn_name": "穿山鼠",
  "jp_name": "サンド",
  "en_name": "Sandshrew"
  },
  {
  "no": "#028",
  "cn_name": "穿山王",
  "jp_name": "サンドパン",
  "en_name": "Sandslash"
  },
  {
  "no": "#029",
  "cn_name": "尼多兰",
  "jp_name": "ニドラン♀",
  "en_name": "Nidoran♀"
  },
  {
  "no": "#030",
  "cn_name": "尼多娜",
  "jp_name": "ニドリーナ",
  "en_name": "Nidorina"
  },
  {
  "no": "#031",
  "cn_name": "尼多后",
  "jp_name": "ニドクイン",
  "en_name": "Nidoqueen"
  },
  {
  "no": "#032",
  "cn_name": "尼多朗",
  "jp_name": "ニドラン♂",
  "en_name": "Nidoran♂"
  },
  {
  "no": "#033",
  "cn_name": "尼多力诺",
  "jp_name": "ニドリーノ",
  "en_name": "Nidorino"
  },
  {
  "no": "#034",
  "cn_name": "尼多王",
  "jp_name": "ニドキング",
  "en_name": "Nidoking"
  },
  {
  "no": "#035",
  "cn_name": "皮皮*",
  "jp_name": "ピッピ",
  "en_name": "Clefairy"
  },
  {
  "no": "#036",
  "cn_name": "皮可西*",
  "jp_name": "ピクシー",
  "en_name": "Clefable"
  },
  {
  "no": "#037",
  "cn_name": "六尾",
  "jp_name": "ロコン",
  "en_name": "Vulpix"
  },
  {
  "no": "#038",
  "cn_name": "九尾",
  "jp_name": "キュウコン",
  "en_name": "Ninetales"
  },
  {
  "no": "#039",
  "cn_name": "胖丁*",
  "jp_name": "プリン",
  "en_name": "Jigglypuff"
  },
  {
  "no": "#040",
  "cn_name": "胖可丁*",
  "jp_name": "プクリン",
  "en_name": "Wigglytuff"
  },
  {
  "no": "#041",
  "cn_name": "超音蝠",
  "jp_name": "ズバット",
  "en_name": "Zubat"
  },
  {
  "no": "#042",
  "cn_name": "大嘴蝠",
  "jp_name": "ゴ儿バット",
  "en_name": "Golbat"
  },
  {
  "no": "#043",
  "cn_name": "走路草",
  "jp_name": "ナゾノクサ",
  "en_name": "Oddish"
  },
  {
  "no": "#044",
  "cn_name": "臭臭花",
  "jp_name": "クサイハナ",
  "en_name": "Gloom"
  },
  {
  "no": "#045",
  "cn_name": "霸王花",
  "jp_name": "ラフレシア",
  "en_name": "Vileplume"
  },
  {
  "no": "#046",
  "cn_name": "派拉斯",
  "jp_name": "パラス",
  "en_name": "Paras"
  },
  {
  "no": "#047",
  "cn_name": "派拉斯特",
  "jp_name": "パラセクト",
  "en_name": "Parasect"
  },
  {
  "no": "#048",
  "cn_name": "毛球",
  "jp_name": "コンパン",
  "en_name": "Venonat"
  },
  {
  "no": "#049",
  "cn_name": "摩鲁蛾",
  "jp_name": "モ儿フォン",
  "en_name": "Venomoth"
  },
  {
  "no": "#050",
  "cn_name": "地鼠",
  "jp_name": "ディグダ",
  "en_name": "Diglett"
  },
  {
  "no": "#051",
  "cn_name": "三地鼠",
  "jp_name": "ダグトリオ",
  "en_name": "Dugtrio"
  },
  {
  "no": "#052",
  "cn_name": "喵喵",
  "jp_name": "ニャース",
  "en_name": "Meowth"
  },
  {
  "no": "#053",
  "cn_name": "猫老大",
  "jp_name": "ペ儿シアン",
  "en_name": "Persian"
  },
  {
  "no": "#054",
  "cn_name": "可达鸭",
  "jp_name": "コダック",
  "en_name": "Psyduck"
  },
  {
  "no": "#055",
  "cn_name": "哥达鸭",
  "jp_name": "ゴ儿ダック",
  "en_name": "Golduck"
  },
  {
  "no": "#056",
  "cn_name": "猴怪",
  "jp_name": "マンキー",
  "en_name": "Mankey"
  },
  {
  "no": "#057",
  "cn_name": "火爆猴",
  "jp_name": "オコリザ儿",
  "en_name": "Primeape"
  },
  {
  "no": "#058",
  "cn_name": "卡蒂狗",
  "jp_name": "ガーディ",
  "en_name": "Growlithe"
  },
  {
  "no": "#059",
  "cn_name": "风速狗",
  "jp_name": "ウインディ",
  "en_name": "Arcanine"
  },
  {
  "no": "#060",
  "cn_name": "蚊香蝌蚪",
  "jp_name": "ニョロモ",
  "en_name": "Poliwag"
  },
  {
  "no": "#061",
  "cn_name": "蚊香君",
  "jp_name": "ニョロゾ",
  "en_name": "Poliwhirl"
  },
  {
  "no": "#062",
  "cn_name": "蚊香泳士",
  "jp_name": "ニョロボン",
  "en_name": "Poliwrath"
  },
  {
  "no": "#063",
  "cn_name": "凯西",
  "jp_name": "ケーシィ",
  "en_name": "Abra"
  },
  {
  "no": "#064",
  "cn_name": "勇基拉",
  "jp_name": "ユンゲラー",
  "en_name": "Kadabra"
  },
  {
  "no": "#065",
  "cn_name": "胡地",
  "jp_name": "フーディン",
  "en_name": "Alakazam"
  },
  {
  "no": "#066",
  "cn_name": "腕力",
  "jp_name": "ワンリキー",
  "en_name": "Machop"
  },
  {
  "no": "#067",
  "cn_name": "豪力",
  "jp_name": "ゴーリキー",
  "en_name": "Machoke"
  },
  {
  "no": "#068",
  "cn_name": "怪力",
  "jp_name": "カイリキー",
  "en_name": "Machamp"
  },
  {
  "no": "#069",
  "cn_name": "喇叭芽",
  "jp_name": "マダツボミ",
  "en_name": "Bellsprout"
  },
  {
  "no": "#070",
  "cn_name": "口呆花",
  "jp_name": "ウツドン",
  "en_name": "Weepinbell"
  },
  {
  "no": "#071",
  "cn_name": "大食花",
  "jp_name": "ウツボット",
  "en_name": "Victreebel"
  },
  {
  "no": "#072",
  "cn_name": "玛瑙水母",
  "jp_name": "メノクラゲ",
  "en_name": "Tentacool"
  },
  {
  "no": "#073",
  "cn_name": "毒刺水母",
  "jp_name": "ドククラゲ",
  "en_name": "Tentacruel"
  },
  {
  "no": "#074",
  "cn_name": "小拳石",
  "jp_name": "イシツブテ",
  "en_name": "Geodude"
  },
  {
  "no": "#075",
  "cn_name": "隆隆石",
  "jp_name": "ゴローン",
  "en_name": "Graveler"
  },
  {
  "no": "#076",
  "cn_name": "隆隆岩",
  "jp_name": "ゴローニャ",
  "en_name": "Golem"
  },
  {
  "no": "#077",
  "cn_name": "小火马",
  "jp_name": "ポニータ",
  "en_name": "Ponyta"
  },
  {
  "no": "#078",
  "cn_name": "烈焰马",
  "jp_name": "ギャロップ",
  "en_name": "Rapidash"
  },
  {
  "no": "#079",
  "cn_name": "呆呆兽",
  "jp_name": "ヤドン",
  "en_name": "Slowpoke"
  },
  {
  "no": "#080",
  "cn_name": "呆壳兽",
  "jp_name": "ヤドラン",
  "en_name": "Slowbro"
  },
  {
  "no": "#081",
  "cn_name": "小磁怪*",
  "jp_name": "コイ儿",
  "en_name": "Magnemite"
  },
  {
  "no": "#082",
  "cn_name": "三合一磁怪*",
  "jp_name": "レアコイ儿",
  "en_name": "Magneton"
  },
  {
  "no": "#083",
  "cn_name": "大葱鸭",
  "jp_name": "カモネギ",
  "en_name": "Farfetch'd"
  },
  {
  "no": "#084",
  "cn_name": "都都",
  "jp_name": "ドードー",
  "en_name": "Doduo"
  },
  {
  "no": "#085",
  "cn_name": "都都利",
  "jp_name": "ドードリオ",
  "en_name": "Dodrio"
  },
  {
  "no": "#086",
  "cn_name": "小海狮",
  "jp_name": "パウワウ",
  "en_name": "Seel"
  },
  {
  "no": "#087",
  "cn_name": "白海狮",
  "jp_name": "ジュゴン",
  "en_name": "Dewgong"
  },
  {
  "no": "#088",
  "cn_name": "臭泥",
  "jp_name": "ベトベター",
  "en_name": "Grimer"
  },
  {
  "no": "#089",
  "cn_name": "臭臭泥",
  "jp_name": "ベトベトン",
  "en_name": "Muk"
  },
  {
  "no": "#090",
  "cn_name": "大舌贝",
  "jp_name": "シェ儿ダー",
  "en_name": "Shellder"
  },
  {
  "no": "#091",
  "cn_name": "刺甲贝",
  "jp_name": "パ儿シェン",
  "en_name": "Cloyster"
  },
  {
  "no": "#092",
  "cn_name": "鬼斯",
  "jp_name": "ゴース",
  "en_name": "Gastly"
  },
  {
  "no": "#093",
  "cn_name": "鬼斯通",
  "jp_name": "ゴースト",
  "en_name": "Haunter"
  },
  {
  "no": "#094",
  "cn_name": "耿鬼",
  "jp_name": "ゲンガー",
  "en_name": "Gengar"
  },
  {
  "no": "#095",
  "cn_name": "大岩蛇",
  "jp_name": "イワーク",
  "en_name": "Onix"
  },
  {
  "no": "#096",
  "cn_name": "催眠貘",
  "jp_name": "スリープ",
  "en_name": "Drowzee"
  },
  {
  "no": "#097",
  "cn_name": "引梦貘人",
  "jp_name": "スリーパー",
  "en_name": "Hypno"
  },
  {
  "no": "#098",
  "cn_name": "大钳蟹",
  "jp_name": "クラブ",
  "en_name": "Krabby"
  },
  {
  "no": "#099",
  "cn_name": "巨钳蟹",
  "jp_name": "キングラー",
  "en_name": "Kingler"
  },
  {
  "no": "#100",
  "cn_name": "霹雳电球",
  "jp_name": "ビリリダマ",
  "en_name": "Voltorb"
  },
  {
  "no": "#101",
  "cn_name": "顽皮雷弹",
  "jp_name": "マ儿マイン",
  "en_name": "Electrode"
  },
  {
  "no": "#102",
  "cn_name": "蛋蛋",
  "jp_name": "タマタマ",
  "en_name": "Exeggcute"
  },
  {
  "no": "#103",
  "cn_name": "椰蛋树",
  "jp_name": "ナッシー",
  "en_name": "Exeggutor"
  },
  {
  "no": "#104",
  "cn_name": "卡拉卡拉",
  "jp_name": "カラカラ",
  "en_name": "Cubone"
  },
  {
  "no": "#105",
  "cn_name": "嘎啦嘎啦",
  "jp_name": "ガラガラ",
  "en_name": "Marowak"
  },
  {
  "no": "#106",
  "cn_name": "飞腿郎",
  "jp_name": "サワムラー",
  "en_name": "Hitmonlee"
  },
  {
  "no": "#107",
  "cn_name": "快拳郎",
  "jp_name": "エビワラー",
  "en_name": "Hitmonchan"
  },
  {
  "no": "#108",
  "cn_name": "大舌头",
  "jp_name": "ベロリンガ",
  "en_name": "Lickitung"
  },
  {
  "no": "#109",
  "cn_name": "瓦斯弹",
  "jp_name": "ドガース",
  "en_name": "Koffing"
  },
  {
  "no": "#110",
  "cn_name": "双弹瓦斯",
  "jp_name": "マタドガス",
  "en_name": "Weezing"
  },
  {
  "no": "#111",
  "cn_name": "独角犀牛",
  "jp_name": "サイホーン",
  "en_name": "Rhyhorn"
  },
  {
  "no": "#112",
  "cn_name": "钻角犀兽",
  "jp_name": "サイドン",
  "en_name": "Rhydon"
  },
  {
  "no": "#113",
  "cn_name": "吉利蛋",
  "jp_name": "ラッキー",
  "en_name": "Chansey"
  },
  {
  "no": "#114",
  "cn_name": "蔓藤怪",
  "jp_name": "モンジャラ",
  "en_name": "Tangela"
  },
  {
  "no": "#115",
  "cn_name": "袋兽",
  "jp_name": "ガ儿ーラ",
  "en_name": "Kangaskhan"
  },
  {
  "no": "#116",
  "cn_name": "墨海马",
  "jp_name": "タッツー",
  "en_name": "Horsea"
  },
  {
  "no": "#117",
  "cn_name": "海刺龙",
  "jp_name": "シードラ",
  "en_name": "Seadra"
  },
  {
  "no": "#118",
  "cn_name": "角金鱼",
  "jp_name": "トサキント",
  "en_name": "Goldeen"
  },
  {
  "no": "#119",
  "cn_name": "金鱼王",
  "jp_name": "アズマオウ",
  "en_name": "Seaking"
  },
  {
  "no": "#120",
  "cn_name": "海星星",
  "jp_name": "ヒトデマン",
  "en_name": "Staryu"
  },
  {
  "no": "#121",
  "cn_name": "宝石海星",
  "jp_name": "スターミー",
  "en_name": "Starmie"
  },
  {
  "no": "#122",
  "cn_name": "魔牆人偶*",
  "jp_name": "バリヤード",
  "en_name": "Mr. Mime"
  },
  {
  "no": "#123",
  "cn_name": "飞天螳螂",
  "jp_name": "ストライク",
  "en_name": "Scyther"
  },
  {
  "no": "#124",
  "cn_name": "迷唇姐",
  "jp_name": "儿ージュラ",
  "en_name": "Jynx"
  },
  {
  "no": "#125",
  "cn_name": "电击兽",
  "jp_name": "エレブー",
  "en_name": "Electabuzz"
  },
  {
  "no": "#126",
  "cn_name": "鸭嘴火兽",
  "jp_name": "ブーバー",
  "en_name": "Magmar"
  },
  {
  "no": "#127",
  "cn_name": "凯罗斯",
  "jp_name": "カイロス",
  "en_name": "Pinsir"
  },
  {
  "no": "#128",
  "cn_name": "肯泰罗",
  "jp_name": "ケンタロス",
  "en_name": "Tauros"
  },
  {
  "no": "#129",
  "cn_name": "鲤鱼王",
  "jp_name": "コイキング",
  "en_name": "Magikarp"
  },
  {
  "no": "#130",
  "cn_name": "暴鲤龙",
  "jp_name": "ギャラドス",
  "en_name": "Gyarados"
  },
  {
  "no": "#131",
  "cn_name": "拉普拉斯",
  "jp_name": "ラプラス",
  "en_name": "Lapras"
  },
  {
  "no": "#132",
  "cn_name": "百变怪",
  "jp_name": "メタモン",
  "en_name": "Ditto"
  },
  {
  "no": "#133",
  "cn_name": "伊布",
  "jp_name": "イーブイ",
  "en_name": "Eevee"
  },
  {
  "no": "#134",
  "cn_name": "水伊布",
  "jp_name": "シャワーズ",
  "en_name": "Vaporeon"
  },
  {
  "no": "#135",
  "cn_name": "雷伊布",
  "jp_name": "サンダース",
  "en_name": "Jolteon"
  },
  {
  "no": "#136",
  "cn_name": "火伊布",
  "jp_name": "ブースター",
  "en_name": "Flareon"
  },
  {
  "no": "#137",
  "cn_name": "多边兽",
  "jp_name": "ポリゴン",
  "en_name": "Porygon"
  },
  {
  "no": "#138",
  "cn_name": "菊石兽",
  "jp_name": "オムナイト",
  "en_name": "Omanyte"
  },
  {
  "no": "#139",
  "cn_name": "多刺菊石兽",
  "jp_name": "オムスター",
  "en_name": "Omastar"
  },
  {
  "no": "#140",
  "cn_name": "化石盔",
  "jp_name": "カブト",
  "en_name": "Kabuto"
  },
  {
  "no": "#141",
  "cn_name": "镰刀盔",
  "jp_name": "カブトプス",
  "en_name": "Kabutops"
  },
  {
  "no": "#142",
  "cn_name": "化石翼龙",
  "jp_name": "プテラ",
  "en_name": "Aerodactyl"
  },
  {
  "no": "#143",
  "cn_name": "卡比兽",
  "jp_name": "カビゴン",
  "en_name": "Snorlax"
  },
  {
  "no": "#144",
  "cn_name": "急冻鸟",
  "jp_name": "フリーザー",
  "en_name": "Articuno"
  },
  {
  "no": "#145",
  "cn_name": "闪电鸟",
  "jp_name": "サンダー",
  "en_name": "Zapdos"
  },
  {
  "no": "#146",
  "cn_name": "火焰鸟",
  "jp_name": "ファイヤー",
  "en_name": "Moltres"
  },
  {
  "no": "#147",
  "cn_name": "迷你龙",
  "jp_name": "ミニリュウ",
  "en_name": "Dratini"
  },
  {
  "no": "#148",
  "cn_name": "哈克龙",
  "jp_name": "ハクリュー",
  "en_name": "Dragonair"
  },
  {
  "no": "#149",
  "cn_name": "快龙",
  "jp_name": "カイリュー",
  "en_name": "Dragonite"
  },
  {
  "no": "#150",
  "cn_name": "超梦",
  "jp_name": "ミュウツー",
  "en_name": "Mewtwo"
  },
  {
  "no": "#151",
  "cn_name": "梦幻",
  "jp_name": "ミュウ",
  "en_name": "Mew"
  }
  ]